{
  "project_info": {
    "project_number": "870412862212",
    "project_id": "default-demo-app-e47ff"
  },
  "client": [
    {
      "client_info": {
        "mobilesdk_app_id": "1:870412862212:android:f36173e948059ccb",
        "android_client_info": {
          "package_name": "com.myapps.mapproject"
        }
      },
      "oauth_client": [
        {
          "client_id": "870412862212-b0583e8eo71t3srbuastumo3elcsmd5t.apps.googleusercontent.com",
          "client_type": 3
        }
      ],
      "api_key": [
        {
          "current_key": "AIzaSyBGJCK9Kwub-pkwGBVcTD6mE7QAtT-qp-M"
        }
      ],
      "services": {
        "analytics_service": {
          "status": 1
        },
        "appinvite_service": {
          "status": 1,
          "other_platform_oauth_client": []
        },
        "ads_service": {
          "status": 1
        }
      }
    },
    {
      "client_info": {
        "mobilesdk_app_id": "1:870412862212:android:b15568d2c103df9b",
        "android_client_info": {
          "package_name": "com.myapps.mapproject"
        }
      },
      "oauth_client": [
        {
          "client_id": "870412862212-hvg1rg204a5klnmvba6umolnqu3snf79.apps.googleusercontent.com",
          "client_type": 1,
          "android_info": {
            "package_name": "com.myapps.mapproject",
            "certificate_hash": "5146fd58a3549dfe1ec700f91e910270290bd638"
          }
        },
        {
          "client_id": "870412862212-b0583e8eo71t3srbuastumo3elcsmd5t.apps.googleusercontent.com",
          "client_type": 3
        }
      ],
      "api_key": [
        {
          "current_key": "AIzaSyBGJCK9Kwub-pkwGBVcTD6mE7QAtT-qp-M"
        }
      ],
      "services": {
        "analytics_service": {
          "status": 1
        },
        "appinvite_service": {
          "status": 1,
          "other_platform_oauth_client": []
        },
        "ads_service": {
          "status": 1
        }
      }
    }
  ],
  "configuration_version": "1"
}